{
	"forge_marker": 1,
	"defaults": {
		"model": "ore_cave_spiders:cave_spider_egg"
	},
	"variants": {
		"facing": {
			"up": { "model": "ore_cave_spiders:cave_spider_egg" },
			"down": { "model": "ore_cave_spiders:cave_spider_egg", "x": 180 },
			"north": { "model": "ore_cave_spiders:cave_spider_egg", "x": 270, "y": 180 },
			"east": { "model": "ore_cave_spiders:cave_spider_egg", "x": 270, "y": 270} ,
			"south": { "model": "ore_cave_spiders:cave_spider_egg", "x": 270 },
			"west": { "model": "ore_cave_spiders:cave_spider_egg", "x": 270, "y": 90 }
		}
	}
}
